349564570
160773422
114146835
77828519
32423872
29483622
27311195
40349135
30986435
34934837
37177305
37195471
32583412
34156098
38643784
28706259
37385719
37096473
35043960
25016270
30958643
38968529
37718047
38651659
35706826
26830410
33935684
38712950
34945378
29880742
38656659
30503358
35574286
31697383
35652243
28464346
37167138
31370596
35172375
34849754
34448427
32371832
28419888
29143711
36349400
34426094
33406400
26984908
34598342
35574869
34931421
33342901
33567689
25186975
33492899
35549078
27752397
33575732
34840255
34273805
27523650
37152680
24960353
34056558
28524928
38645034
33297819
32384373
34999378
35398122
32793910
32547413
29654620
36830476
26554206
33713688
35539745
36405024
29172169
33788104
35927239
36260985
30550441
37882129
30474358
35009586
34368679
29604413
39260442
26151712
33273402
28069476
35537495
37848879
36445316
26333376
36958975
38738409
23991326
34586342
35444413
28865215
32138919
34379220
34709257
24170157
34561009
26375459
35757534
34924129
28691926
26196295
34831839
36416024
30922269
26894785
34358512
35272833
29849410
31695550
35168834
35403039
28970797
35376581
34771423
39036696
39271151
32202126
40273928
34687799
37274637
31952922
31837423
32155502
33887644
26932993
34504719
30453651
34018267
35237250
33651564
33864603
24369404
34293513
39213902
33411026
32937074
27849272
34336263
37908878
34363554
34921379
28193475
33652148
37521759
31686134
35325415
36571106
29607663
36675687
38068418
37673882
28612510
30733522
37498968
38115084
37702798
31676550
38053210
31742966
26559248
33952434
33501900
29916325
33077030
32957657
36433316
34676925
26949826
35519454
28488263
36377609
36534106
30673440
33761021
32208960
38087542
32248376
34433012
31770216
28125601
35872491
34558426
33205070
33385276
33328944
33291403
35956323
34931004
37711756
26550999
35660911
34004768
28184725
37417261
36825353
37191222
38045044
30647482
35408539
37455093
35855158
32021504
28037352
35017045
32910825
33275736
33572774
29826910
34602135
34820548
37726090
33221279
26433541
35928949
32973407
34047267
35607287
34378012
29662288
35338791
27511693
37275096
24911522
39304401
32782869
26290543
32231543
34216807
34272764
38481913
37580842
34637842
31894131
34183891
35280875
28633177
36842477
34963713
37212598
39994350
35124293
38116710
33970227
36995517
35808701
36872353
33595441
38507496
36580731
32708537
32969407
34954837
33537066
34790215
32288500
33625732
35798576
33839687
38493663
35124919
34697717
37272305
38753951
35226584
36156904
37594051
34527927
37339179
30498693
35388790
37905213
26066547
36001573
33017324
34945213
34622510
36441025
41040002
37591301
32537372
36736896
36230236
32486622
33571858
41038127
34489845
34273723
34154766
31139684
34801673
33814770
32773285
28557512
32847118
35622120
37614426
36643564
29956867
34686383
37416844
35353207
24877565
37603759
35146460
37258764
35646203
33082031
37750256
32421166
33730730
34795049
33262571
26892869
36888852
37122141
27850855
34240015
31641844
32363959
33615066
27223198
32151295
33350069
33407276
37289888
24918688
34448220
33449693
33461360
37413720
27357404
33079115
38348874
30563900
26402793
38382665
31391139
32129919
32851952
36092531
38095836
35241167
34502886
34044976
37780257
33446277
34172974
26437001
38937782
31249474
37830590
34935172
37619217
35520789
37165724
31823383
25575013
35513331
35411165
34353638
33633774
35992490
34522095
37465553
37615468
33811104
34416846
35998407
28837175
37896838
29291502
37864881
29061130
36188696
37777465
37392596
37613551
34480179
38613703
31134476
29347835
33236571
36402193
31346098
33436485
28322224
36658148
32465207
27150991
33658566
39524482
39252987
34005311
38772868
40365304
33134698
37540094
37564343
28403473
28169018
28152894
31338557
34093643
36124156
30960979
35198460
37180099
31296432
33089240
25916091
36185780
35975616
33071407
37332430
31740926
35881951
37349680
36629524
33017616
33103948
34710217
34315973
31776009
33157156
32955534
36146739
33087740
35712412
37719342
36782188
37432554
33193155
32024339
35438124
34825882
37070393
35802785
37507594
35264251
32209878
32329126
35953741
36003574
32122796
38529413
38292042
35242335
36883395
35841326
35622913
36795813
38358415
37953380
39069697
34446263
34277890
26026590
37777049
35701079
26510792
34143017
36016532
37630176
38066253
37305014
31831633
35086921
33130657
35016421
37509261
31632052
35190377
28019562
39329986
25474015
34420264
38327417
29673705
35371291
34995088
35141253
32729371
38502539
32991825
38868534
31159643
29816162
34855257
32957117
32502957
34777967
30315279
37826215
31762884
35197128
30987770
34768675
34713634
38392791
37679342
36536567
34099893
39360194
31797259
35038754
28735886
36342486
29083630
25735302
38722994
36677732
35585872
33355154
34974464
33204614
33282655
32370834
34518221
38692619
28493764
33245280
34987547
41414165
34172892
38076378
36837354
64016387
25875510
34227725
28155394
29926119
33432945
34807925
36717939
41092711
35624080
35764745
39804812
36633608
35242668
35033796
37176309
33455277
36460943
31349307
36611566
36253488
27532944
34412889
37686926
33937437
37493220
34427847
38468124
32567290
34627427
32850078
38719203
39089698
34988006
33145407
26871454
38497164
33156532
33265530
34130351
38188419
33215155
33841272
28346517
35264710
38022338
36529567
34599261
37364431
32455000
34430597
33771023
33375612
35307334
32236003
32803328
36564358
33309237
31426223
26985827
34655844
37867049
35503623
33025492
35950993
34456722
35540707
38594122
29268628
35635205
35384959
35383042
37804924
33914271
34064435
32854745
33459778
35100963
37331848
35462833
35420458
32633040
38356583
48892476
36838313
38080087
30233407
36585275
34784426
36440236
37990922
32508708
35852828
34153184
36438777
37087560
40990588
37861632
33357071
29753330
37403347
36877229
40835174
35317085
38236377
27657068
32158588
39440194
35523457
32702663
28126561
35897201
27021077
29125672
35691538
38782286
38550373
28996091
33591984
35246003
35755704
36904979
34414723
29987035
37236475
39345278
34934382
33789440
34262434
34032270
37073144
36603275
35279502
37365514
33590359
35237086
37025102
37832383
50474538
34598970
32095297
38738703
31162144
38596705
30550069
35367417
34326557
32445543
34593970
37467180
34734927
37300307
40713509
33006118
30437487
34958465
32086089
28139145
39055324
34385307
35060756
31355808
33455320
35139171
35539915
32014757
36835106
29143922
38956993
32695414
29044173
32187754
35127254
34527013
25005522
34923716
33543193
36972187
28194269
37461180
38198586
35076005
33396904
26694749
36940605
34502721
27156993
34873633
33622609
36873021
39666691
32160171
37095935
34983548
35190920
35521040
32470375
33502361
27217158
34964757
33797065
36065783
36434611
31535305
33532861
33366862
35189379
32308878
24554570
35212212
32796413
32619499
37099352
36719065
29876787
33161699
26833705
35461709
26438503
36082241
37641470
26001342
35559582
35484250
36003201
33091117
33621109
35856911
33998146
28109104
33626192
38707204
31847801
25332727
34607054
24957440
36153032
30980646
34514389
34935549
30443946
35897911
33356696
34495514
35525708
35532499
32181588
33266031
34113227
35795246
33763858
33363363
36784857
38306544
34247934
32927286
33022035
39595151
32830912
35387710
30448655
24308866
33248073
34248392
37862924
30911106
35541415
36514860
33414155
28490391
41313835
27460488
34881009
37654012
26214256
39362279
32459293
35834036
34566763
34667803
33218032
38795412
35254712
31016772
38010923
35558166
33258281
32280504
34676012
31653220
28479766
35030298
33579944
33295156
35150130
31322976
36157200
25889010
38982284
31821385
37665511
36357613
26762123
32143672
35651665
27568445
35798871
38240003
30189033
36091992
30179700
34977340
34197977
37033686
35131922
31561931
33442488
39087033
31728845
30366989
37690428
38516541
32151589
27585403
28684138
37817467
31917217
24497030
29528918
25664847
26376503
34178519
38605581
30393114
34775844
36225615
38729413
33590610
37050061
36611026
29248005
35327294
34921758
35500167
33031535
33409196
32034716
37589262
33272115
32453168
36305405
36592818
32210755
36288281
35193172
34456723
37775885
36985146
35636207
36794982
35343378
37008604
37804051
33929814
26602459
35925953
34654762
36756983
30771442
34538389
33125826
26638250
38804120
29434711
34001979
34872676
37773135
34654596
36067618
36969230
32892037
33647610
27177534
37821176
38498792
32089007
36259656
30927232
33027160
37621679
35847246
37873634
30326323
36179616
39029742
31321892
36359697
26452919
38623456
32738539
34647346
36985563
37470806
27032911
36022493
35391169
27632070
36654776
30082035
32755080
33523486
32424211
34004771
25201437
35928370
26041092
32328045
33122742
34473848
33738109
31353226
35271087
32780497
33970439
35429085
40915925
35051465
35564333
38348627
36890023
30995481
25215437
33969147
36258031
38037299
33112243
33367114
36845524
33416531
32157256
32343629
35576000
36239449
31629014
32248797
35907786
36385197
34715137
35329878
35571916
27583779
36082409
32017925
32261213
38906412
32828622
28704179
35731248
31519723
26861455
32349754
33762109
33406822
37172810
35971452
37449849
37797677
29184298
37343767
33155492
39187615
37656929
30967357
33423156
38704248
34685929
30597153
33230824
37831885
28109022
33699776
35068257
32094215
35281962
27092078
37142145
31363976
35257921
34412391
39244198
29714624
33526070
33664735
38189505
35660290
36568361
39348613
32516752
40381766
30450530
32920120
32222464
34780886
34151770
33777192
26714083
34781844
31926593
37385308
36646943
36579611
37278393
33716818
36835483
35529042
34257561
34971634
32713291
54676149
30017037
37529514
36965231
34337434
38207380
33637944
36616694
38099131
35707706
34819927
35825497
33559445
38330753
33808609
35119423
35477793
30581237
35422877
32407503
33528862
34243102
35114256
33504238
33551321
34612389
33927649
32087133
32410837
32884205
35519751
30608111
33147618
34721012
31344560
31842011
31857886
34348101
33225533
24641946
33164826
34924343
33569779
35767247
33544654
33142326
38350545
26067342
34825302
65821409
28236728
31295727
31189104
35689332
35028758
33483280
31478058
25785472
28416726
37390809
29542461
38145256
31459267
26195299
31580056
39304365
34073980
38465669
34458974
33403156
36448447
38785455
33417030
29559043
31933468
35419836
32813914
34836427
35700457
33347532
35954578
37978633
35563418
39102285
33966481
35996578
25341728
29774665
31703222
34787053
26739833
35173840
37263768
35580293
30246034
37956092
34223811
35485543
34749137
32613168
35650708
37726471
31004898
36515863
32880330
34747804
34188103
38546334
33386948
32133049
35504876
30357991
35756457
28126397
33438739
39039452
31592432
34292185
35911704
37382183
33322824
38477626
33494738
34891844
35858913
36083910
33615237
31629014
34431642
35299714
33361491
35003051
32781915
31749846
35014050
30435156
34589514
37764761
34632473
37030981
35259713
36494155
34359768
28669306
34144937
37587514
35490086
34277394
34990968
36650653
40427933
36612362
34369601
34287811
38139215
34872969
32102466
35257339
31468808
34634139
33012371
34726846
35780456
30368199
31914177
34504975
35999829
39127868
32818082
33871275
35489085
34464600
37428350
33465031
32983455
34264061
33293575
35109008
33862775
39099202
38539543
33299908
36043036
33356907
35530960
32055925
27027079
35701624
34078480
34576557
34189103
36813442
36160410
33556696
36046661
35188840
33586654
38559043
38756040
35549835
35966287
31351727
37565182
28785221
35302255
32766666
39290158
32957122
26504795
37995009
32816581
38497877
34414809
38617500
35469878
35056675
34155396
35207964
32659209
35926913
31151772
34850637
31103106
35855289
31825929
35194132
34037773
40792553
33032496
34750513
33962524
32567501
34073064
24821736
35416170
35252673
32831123
33690486
36598821
27947692
35440295
35833665
35737208
31540808
35534835
35247756
35029134
35638418
32404963
31679056
34636723
39324533
37161479
31416518
35960829
28508975
35793874
36906775
36065411
36529988
35942955
31773722
33580196
37354685
34454934
32835748
37785596
34421601
29176299
37603390
36084495
39094744
35494752
33192452
35592084
34951469
37457726
37441017
32547544
35938164
37877344
33590280
32458337
34120606
35082883
35322547
32846207
37859803
34030065
36572154
37129313
33928733
34466226
36583529
31976511
38105174
37233353
37227603
31857262
33576571
38068633
31260812
32575960
35415170
38007676
39069244
33522738
31170314
33983275
34408435
34272103
35020927
34003107
34582015
36593154
34180272
34841637
31801888
37247436
35040676
36952274
25021566
28394853
38578460
32775166
38141091
30420033
37950886
28237771
27385408
35554877
38084134
36402157
34575725
34850137
36997773
30706362
38943121
33406532
32539086
35574919
39537489
31601724
33442656
36212827
33241201
38729042
33884233
37647765
34780805
36647820
33728570
30615447
35007802
35606752
28383811
37833554
31289520
36932150
35130175
33866276
35992871
37865387
38101759
30206286
35485212
38123925
32697376
37156896
33390241
37503809
35107300
32056634
35506295
38494670
32680626
34104648
31648849
34249937
35270465
33785569
33735528
35275673
30762987
35528212
38268964
37412727
34930303
38864539
33755944
34418685
28388478
33432865
35165175
32700584
35560086
34713639
33425824
41633501
35772833
35796625
33750361
34007191
35005177
35822707
32875706
34434935
35487628
37429685
27602281
37583891
29806374
34646682
33802361
35884914
35505003
35331714
36833485
27676946
37600724
38625418
33201160
35437755
34283770
38083050
36484365
32936081
35251173
33585197
33924943
39345492
32749875
34457976
37417768
33285326
36893192
27015539
33084079
38479212
32383880
35359755
34955345
31876679
35102634
38002176
36518865
34271354
37288979
31836972
26779500
38843624
33348992
35670501
32347631
34274645
36977066
32960498
32036010
37775221
34196688
34797722
33253702
35372714
31631057
33179953
33133245
32550086
31396103
33439700
33980525
32756208
31399811
59082674
29624919
32570753
32860749
34295854
38701793
32122968
39177661
36530072
37728805
32376672
36670404
35069177
30823652
36690821
37357353
35306632
32652794
38165675
34764472
38836915
30076788
33568031
27081622
35196924
34719557
35270924
35659793
29312548
34669974
35842916
32551462
32664086
34674932
34928346
38694501
34489601
35423589
31827722
28248980
35121760
38211550
34255730
32879374
37290187
35475671
34954386
33675988
33820819
33441575
35926956
32108426
38042510
35388838
36192369
34133232
32043593
33252744
34893096
35935331
31960095
32047427
32033136
32956748
33364617
27130495
38958664
33829777
33771070
37284312
41087676
34194064
37260688
36149745
35119551
33479532
34128398
32514630
33080996
35286549
34195064
35711167
31933596
33472407
34855971
34520059
36434616
36459408
34530351
35045760
35847041
33674280
34396978
33275785
37747806
35460630
34384562
35682210
35789958
35956415
33737528
34628850
35276174
33285077
35369631
38508046
38397005
34049899
28753265
37647266
34424686
34284480
34765015
32032678
34914387
35639835
38178925
28364312
35906416
31657850
34737431
38007219
37574225
34576518
33734363
33542865
34021400
36569531
34932971
38518504
36934110
28970512
37450102
26894500
38231633
38103052
38244716
39433033
36984609
33834611
35446755
34242272
33080705
35523713
35122176
33086914
37991552
38200717
37176190
28470435
33680572
39304159
35395256
32045553
37607434
27825320
33625905
34277438
33089746
35255008
32165009
36095163
31436478
36117912
38239758
31619017
35475463
36809237
36803778
33371826
36780112
28617226
32447881
34816472
31870222
37905263
37908512
37868180
37138231
35784334
32920332
34632934
29076844
28243273
31140941
34928804
35013428
38538962
34364396
34434769
35444922
29806709
34935012
35502713
39000039
32771918
26896792
30568448
26577587
29107302
32979040
38798500
32920791
35620378
37496601
35995248
33357367
37828056
37066316
35639794
37243480
36910777
37393020
30614323
33704696
35017387
33671489
27161330
38339465
33326743
30785862
34223440
38346923
27736404
35270674
39331951
35280966
37396228
34826681
31902638
35442423
37753932
34820723
28014568
31899180
38177592
32970249
27614157
36449033
29029387
37867306
35610961
37758182
34369437
35062136
34070608
32458880
35652461
37477186
34486769
36242119
26737502
35349049
39148329
30444326
33583907
36847361
39018248
32272550
34128065
34374604
35935791
34912805
34562977
35616086
33569990
31164898
27434076
35931332
114308698
68667001
28226523
35089677
35537672
36104663
34939846
32121135
31384187
34604268
38177676
33436409
36481199
34926972
33462783
28505978
35108177
34302397
35351174
31765265
37810473
33268745
35356882
38104386
31492061
28425770
28542686
35002678
38113219
30653031
33246453
37196440
35837834
32830584
35496506
34698850
36409409
33456325
35572379
35011637
37916263
30438117
33730780
35684252
28894806
35042928
34632975
31536393
38347841
29466839
35545630
33937069
37018943
34177898
37147066
34926596
33664447
37896139
34792515
35356632
33090872
37066150
35034054
27869779
34418103
27492700
32673003
37044817
31930930
35492880
38348549
33378702
33806904
37240940
32070345
33964819
34594434
34365479
35188552
38726627
38381340
30612241
28600893
30524575
35195926
33356493
33934194
35577338
32593463
32513172
27255037
38420048
30661156
36211370
38250176
34722808
36094872
34521894
34432896
38078053
29814793
33310245
35060970
38096302
34493019
28521644
37018651
36203245
28481561
35544130
39372702
36781863
35861209
34093150
34303022
32641920
31163941
35798710
31141108
35501464
35330508
37974429
37268356
35985707
35074011
28201982
34157441
26719419
32982291
33802363
35441382
33220745
27402451
39236704
30845278
35084928
37683517
37322063
35808209
36398618
35658462
35684961
35172469
28134525
34276148
37882514
29467673
35145302
38931083
37697392
34495894
35208259
30668489
34325772
35429757
36608366
34527811
33665323
35050179
39061998
38829585
37598519
35343133
38629504
30746155
37740975
29479257
33655240
35359133
37429188
27722447
35225510
35192719
26397174
38604337
30553575
35094262
35880626
26782835
34174399
35083970
35693170
35667378
36012790
36983777
38785418
37686559
32862001
33226954
37302314
37310939
35803626
36797530
37644935
33693239
34234940
37128192
34517978
38318925
34880390
24497200
37601977
35277884
29930208
35390757
33326953
35732712
34166107
35315508
37786266
34993847
34401230
31394105
35826793
35269260
35920667
31779433
31031526
34533978
30467492
32340842
30476784
33533284
32380632
35430215
39008499
34613643
31985305
34150317
38009055
36158289
32878417
35821002
33937194
34869849
35376883
35793711
32328634
26881376
34041901
33505326
35244634
32194844
34853598
30624740
37978805
35699545
30594283
32906084
35188260
31775558
37641560
35773003
34828432
34382313
26973541
33506158
35468173
31693726
35590172
35506173
33214913
36813197
34991221
32793252
31941764
34747475
36352245
34284482
33470535
26756169
34344272
29549464
37145275
38192844
32593421
35636630
27465660
27647657
32857293
33574241
30484910
35846835
37668018
29051763
33293329
37139650
38916417
30664282
34410396
34997806
32072262
37736975
32573714
28473104
35310968
30893070
33511868
35160845
34116109
32888585
34738808
34952722
34700267
24288371
31753851
33829697
35483924
37365230
36666907
38739337
29648712
34586560
36429369
30286913
35091429
36088623
28908182
34599019
38815419
37195400
34128401
38644838
35544131
32420091
26607797
36730364
33002416
36612658
30307079
38472924
37189650
35941542
31733850
33126581
30512451
35240635
33859363
37902140
34814267
32715670
35119637
38391300
33234622
34962264
38573714
30567908
31168775
36409786
35591714
34533395
35252719
31528687
26536298
38142470
29557881
34791434
32918292
35249718
35659254
29210469
34033069
36905738
33348120
35044054
37516646
34942306
35252843
33086248
36956487
36261912
33566450
34228649
36712490
35295760
30676032
34937431
35298009
41750962
37620769
35564048
33133790
36774072
34934473
36397703
31254524
33328287
33949737
36250746
39605991
36474618
32676837
27625908
29376384
34992222
27781114
38768920
32098387
34989806
35482174
30835363
39123040
37166567
36593075
36641699
34985598
33323704
35097720
35605380
28865557
35125221
32827627
37520228
32269302
27453035
34326065
39169289
34951681
34710727
37062360
36878154
37126276
30014916
38453216
34804266
37740851
34537437
35347384
35096471
37585103
36131123
30601700
35207720
36016708
35000805
32006347
36255538
34754100
38204053
35351842
32505091
38502049
34236649
33634450
33884529
37728268
35330634
31064486
33470993
33049166
33481785
32987209
32435216
34938057
26675880
38060930
31692018
38301719
34090152
32928377
33391411
34619270
35542881
32405217
38797753
32199303
34229734
34366690
33479577
34649061
31126277
34305440
35184678
37241858
31536688
31427439
35755546
31139652
35100638
29249635
28488896
34807267
35514883
34067402
34391106
37146693
37903307
35662464
35748629
37605020
34910182
33163165
30991195
29076221
33613201
30983528
30665825
34423064
33980695
34856558
39458911
29280219
35128846
27114999
35369426
35809878
37833434
38888044
35226720
35470341
33112749
38083305
38794379
35506632
32078680
34668686
35825212
38471966
35825087
33518868
35652422
38083889
34445439
28655102
34179901
38465758
33556076
30194789
34552020
35303010
31836683
31819350
30079791
35600881
33624117
39078958
34827642
39618284
31466230
32185220
36099249
34086235
35182262
38571965
30140999
36172498
30228497
38384843
38489424
30282122
31579395
36242414
35199637
33244622
36983528
31677603
33932280
38738004
34960015
28902182
31166984
30637992
33820448
33646284
34649936
34705227
37219026
36447827
35962459
38047264
32359427
38992751
34181359
35603464
38414051
38118555
32047055
33307413
33411786
38279928
31981432
32165345
28650311
38824462
30051000
33625033
36163749
33435995
33569326
37908474
37622853
35807170
31332607
38749797
33247831
30799615
35812711
32824629
31415690
36964154
34694727
38938085
32327510
30326496
34959432
32342010
35234012
29161470
34837809
32978960
36470536
33653409
35516882
36304163
28140527
31119027
35966251
38587840
27758448
39073167
35152471
35403009
37772393
37537480
37553771
37527896
37870934
34499438
37515938
34992640
32259761
35059598
35323802
28067986
38352594
38303428
38199513
33287789
32329219
32740171
27529910
29973377
36280414
36360537
31430981
28799267
35302969
36434912
33576868
30434703
30488911
33611992
33985945
31478397
34332066
35399967
34681436
37255901
34218734
38971460
37852350
34813809
37495814
34212026
33688950
36270081
34131360
36992613
32340094
35306053
36531785
34673645
29071681
36022834
34341815
35252470
35710380
34112236
34691311
34564563
35356010
38287761
38619757
35757213
35382302
28377607
34819393
35181637
33409662
31719644
34654478
32525258
36956530
34331108
37577562
37559980
31905891
31337899
32593590
35540216
28656437
34642062
25934057
35573174
32643423
50342970
31311483
31440106
34171152
39440662
36393996
31239734
31755727
33122416
35707130
36480412
33255331
44200137
32531716
27088333
32329760
35352135
50480260
31953183
34011445
36116083
26338010
27469869
37851684
36290706
30213165
26338593
38697422
35375802
30308331
35455009
33695492
34260942
37200235
35854045
38245304
34385732
35680256
33809324
31582146
34551271
35623257
36725366
25915600
38519675
33640867
26427384
34902850
36038376
36315455
27387537
28484064
26282969
37309317
35977710
31409982
27596118
33556952
33953863
25327816
32984294
34936725
28861475
35060973
35080389
32978002
37532064
33676992
33042710
33994113
32107722
31972224
34664478
31159985
35366677
28792101
38713089
31579063
38136722
31126028
32948211
34475939
33677867
34011237
27183374
36450329
33571410
33947989
34194485
30031168
36301164
35236513
37998599
33699575
34510439
37248984
33897739
33611743
36788949
34194776
34501397
39462537
38121472
30942821
39507245
33581285
37273442
29769672
37854559
27720992
34840685
33664951
28186152
32997668
34307484
35733339
25750227
28330358
36274081
34240276
39362206
31431024
30792991
36608493
27274040
34800102
33078167
33644326
37720729
38129555
36395538
38696756
29963002
32325303
38361428
34940600
34215193
27499536
34746186
39747867
36803074
26626506
38843255
31551147
28957599
36985530
35691757
112378529
69202959
27039084
36229249
32101306
32930920
34134445
35949045
33713408
35585091
36947697
28885808
40586897
35168097
29729463
33093792
34636896
35119639
39080959
34452857
37897559
36698450
28946641
30167166
32296428
35000932
34092654
32764881
26972377
38065099
37287109
33579828
25889850
35721089
38176389
34472273
35178597
28853643
33393955
38150431
33659326
33176250
28617521
35856462
31333525
37342900
34534606
29235263
37167736
36606410
32006974
34299067
36231333
33938864
36237291
35696715
34701187
33775658
37338650
35591966
30035085
36035835
27540578
35153639
35150389
35890879
36336164
34073988
32260387
33383288
35078099
28926975
39276207
28964141
34183861
35042515
29447427
36138209
29199346
30748741
29687715
33597119
34861851
30951280
33768033
37649229
33083876
32094599
36429872
36721284
34144237
36261540
38811797
31081237
35688215
32072640
34076654
32152972
35723797
30481287
33761534
34046112
36036002
34275152
34213194
34718520
28333733
37563647
34819769
37716687
36696910
35772173
31059570
38613550
30317206
39422247
29748506
34097654
35950295
38492135
31996350
31020863
30259665
38568759
35060849
33141584
32428844
31237027
32888837
29819046
31410899
37711228
36128834
36304831
34514815
33754075
34444066
28949391
34167694
32466260
31581189
35955128
30707950
34397817
28358400
38580259
36850991
33527412
35456052
38083099
27602869
36562328
33393122
26731589
37832435
34285818
35233513
36499829
33821074
34343401
28074446
33327873
36750617
38326971
34004780
25909017
34299734
36233624
36569578
32759381
29216055
35741923
28232402
29168806
35450594
30680201
27332998
34709271
38856422
29531050
32924504
29128014
35039016
37251069
34059071
28496065
34363067
34384358
38065100
35055474
31128112
34673271
35537926
36151209
35222389
34459316
29026307
37425108
31191861
36012627
30053877
36336040
35307388
34393150
32395886
32826297
30754367
27126084
34611689
34469816
32796464
31174069
34193612
31579689
32081807
39190417
33177209
41040183
34779478
33804825
31879893
36162043
36943948
36106627
35134557
29357761
34921684
34761562
30874449
34533940
36518621
34969142
29360678
33840949
33785617
33169626
34680022
33941657
32569176
35665383
29207806
37636731
32737673
33466997
33768575
34075405
34275652
33594661
27355039
34678480
37199487
33749076
35274513
27481996
35609050
38455719
30056835
34118695
34643438
35906129
27847824
34466983
29502176
37772979
30917198
32814005
30229582
34927143
34552357
33507912
32733382
39944074
37792270
35511426
32763506
34591606
34845144
35085349
36367665
35050433
37002406
31441275
34526232
30923323
35153140
37854520
34935060
35378012
31856227
29284596
35151099
26630132
31497357
39055837
34702854
27352122
37746729
36627328
36995156
37574732
36079127
34682521
38361513
30943365
37459400
35059474
28880560
37919185
31651396
32566509
35676633
27073960
35906005
36536454
33640703
33577412
31148778
34609064
35061183
34839186
32567259
39147627
33087293
34883769
28965934
32573301
36377415
35136557
38089475
37956768
37651522
33919949
37254361
32493511
34521774
35602218
32762132
33096918
31383400
34555607
31787687
36593537
32556634
37299652
30477996
33694535
31715646
32549801
35550510
34602606
28294902
35146724
33763577
33757368
37459608
35847547
38611550
35558885
32586384
31420359
32531052
35347929
29487719
39429165
30927073
25378650
37257319
37847478
33339624
35748341
38067308
38500511
30764035
33719785
34555523
33688910
37204195
37567065
34649439
34029322
34666856
38820382
35891380
34555941
33624619
28731562
33731494
36031628
35034559
31764938
34885561
31144113
35361762
29098974
34428733
33305458
32364220
34729188
28927393
36681078
26723506
32302138
35661092
32422637
27557037
38085975
27262249
36623328
34478316
31220362
27843658
37523858
27185626
33440706
35600342
32023767
34841270
36439914
36678245
36871742
34836437
35496385
41021809
36140460
32469636
30697744
37143280
35111682
31799895
32405512
31913560
31579690
33991948
34753188
31961809
36039962
35451220
31599939
36887617
31658564
36413415
33053669
37500608
35124432
30535079
37354861
37682731
36081795
32514636
37347735
34496483
27650286
35884089
34608064
27731993
32235930
30704494
38637260
33267375
30951657
36399123
35038809
36056545
29820339
35131516
37344360
34813604
27269624
34224154
32956713
27653244
35489095
34808312
35930339
31118904
35256556
39018338
33513914
35971713
35757382
33391373
35072226
31740354
37761189
34001490
36220126
36336958
33568454
36084794
31911144
32929338
35197807
39688704
36959324
26984003
37777313
38634551
30202084
35419470
37140113
37728647
27762535
33243751
32732549
34441567
32177182
33717411
34151363
35743217
32749841
33781284
33972448
31948810
31437817
33586079
34035614
34794646
33363707
33852325
34041781
30884366
33173335
37447734
27175835
33815409
37275987
37581941
38180057
37666731
33766118
36146794
31949435
35459137
41568802
29679383
37886812
34879561
28898935
35073017
31697189
31918185
34764563
37842187
28942643
35983755
37375027
38926381
35354972
29537135
34489858
39848451
30121085
33547038
35555177
31475442
37303778
37736981
33682536
34386527
35638426
30540330
35550010
36905451
37034865
34055407
33728453
35452971
39304709
36359208
35928130
35163350
29237097
36047337
29337679
35433470
40667940
35262056
31092281
35310139
37661106
36552496
32339347
33464206
37220238
35324264
37799730
37550567
34082489
32985963
33776369
28114321
34237112
33837451
33697369
35910006
34508733
29742549
34408151
29136724
34964436
33868117
32177182
38192849
30217959
34783855
36857617
37146613
37853562
38584219
32005102
37966644
34423026
33907908
34891562
37728022
38478137
35749217
33295667
38541094
28904477
32980838
35521053
32404721
36209419
31597940
35817049
30051878
33096586
31356902
37325403
34548941
32123850
37817938
32977963
33553413
33212376
33400832
32165640
34207363
35182266
37359236
34829104
32579468
34299278
35743008
31070823
33747369
39489832
32445596
29835964
31945935
37080365
29539885
33690245
39635997
37851479
35613593
34605274
30876117
37140281
32369763
36039838
36591955
37499401
34294862
38036185
33882284
37228738
37248529
31102239
36416499
34920228
34629816
35850591
37294821
36597038
38365889
35956505
31929686
36479915
35706009
39048963
36048421
28893352
34820229
33873951
31938811
36456373
35006269
35692009
36406583
30687328
35535511
29101225
35795633
35461429
33761077
29591843
35757633
36524956
38502388
37198613
33260209
32672343
34466734
37266071
30219210
37628691
35275057
26270930
27287000
34968394
32218724
36484665
30461665
33180919
36413082
26716508
34083448
32736591
34294903
29463053
33872909
36027755
29991671
37251321
37276196
34938436
35356639
32444429
37587650
26804381
35034435
35146767
32138392
34583857
34559317
34646441
38113601
29907172
38230850
37023700
35032018
36454624
39110629
35437929
29573718
38863924
27171960
36640205
33108336
33703953
36759036
34934187
30780701
37070366
33488039
34165031
37515443
34600274
31953560
28629274
36923118
34225696
32053851
35269099
36571122
37973311
37028908
30900159
32586760
35999839
33809077
34768813
28763522
26911380
34702481
26870173
37610108
36998241
34782772
33992991
34380694
33814327
37461694
34539650
35488429
34149697
37164114
31846479
35211475
33481665
38313515
31395986
33690954
39031006
34981019
33369250
38741467
39752329
37870896
40664650
36722662
30354125
34445069
33501831
35870132
35080559
32505346
34427235
31538525
33723204
34990978
33519123
25131154
37167739
32762842
36961492
34122864
33784494
30931658
33824035
38560012
37468069
35508971
37793522
34021991
37754648
37309196
38562637
34648482
23813256
33619288
36760870
37562442
35154725
32085517
36417958
34269321
40582026
30360375
34150656
32383847
35444305
33787369
31586816
39201461
30282126
29435096
37741856
30710829
40746690
34696898
27047170
32768842
35009103
33648204
34785814
33840619
38562262
33292210
36977368
37575276
30811744
38850800
39949034
35356682
31391736
37225697
37947729
39946368
37774273
34774605
27052253
36973826
31348152
39043006
23822964
35579220
26907130
34939228
33861618
39651623
34379112
34384528
36910994
26633217
24694619
36039464
40751232
34509693
32999213
37316321
38553096
37073991
38200517
35085394
38033561
35075976
35294973
38418514
39497958
35499430
35487180
32428971
35211058
36070630
31337736
37948604
36640955
33576039
36376375
38862091
34479569
37142282
32077977
34702607
35153809
36368459
37845147
37014742
30874368
31862271
38559137
34695274
32196516
36242252
27337791
34426236
35587720
36140504
32605136
27741286
34560276
31990269
34818605
36934910
34709273
34522193
35140643
35279849
29160683
36863370
36492665
37036616
33564623
33335334
37056700
41651720
37109324
33680663
37953563
36341626
36870786
32600303
39085464
38992174
37375945
35347223
30721953
28145031
34918813
31814855
34114657
35739426
29324681
33973909
37270363
32147684
34910396
34968895
33098588
32361264
36660747
35833341
31440944
34589192
34749357
31399027
35426722
24241668
38076353
30859869
37950271
37683649
29405347
39485125
37637358
36420667
32483346
37694775
37774190
34189489
39509833
35918549
40813941
35711010
37396987
38485056
36998492
30385708
37087366
37024950
34136698
35593471
24071753
33878785
36382710
37733732
37542944
30283584
37216531
35477596
33044547
33607914
34076116
36602581
30902867
35765677
37881898
31997603
36277336
34230947
30518789
36331585
34931104
33655205
37243864
32274391
29538012
36907827
35123560
37928772
32273557
33715371
33831827
34428819
29714676
34280989
35697260
34551901
35042228
35504763
34731898
34530693
36268961
33863661
32771884
33126963
34696565
37368487
32806092
38333724
31314488
38492055
34726274
38664929
38809968
35438389
38443432
39235587
38473806
38369182
36906161
38672761
33787286
38532388
36042256
34932522
34806356
33580581
33144046
33430167
36265212
36655039
34089241
37614109
38801885
27276668
35298891
35084811
35948591
29017685
38863593
35537513
33566165
31555526
29053726
38535597
37630193
38148894
37102492
36928744
28021907
37250781
38347641
38097228
34295446
38284142
38008771
38427057
36449625
35685469
35565345
38547513
38545889
34210448
33496208
34583860
38860342
37789566
37786648
34167073
35586346
36737913
38713637
36675039
33979326
36887119
36166588
37421029
34436028
34355488
34234614
32119227
38559013
29186142
34807107
38440390
37415612
37140866
29474721
37974563
34996687
40689734
33624081
36804121
37708983
37931439
38150102
37620568
37199407
33857453
34649900
34877314
34900605
29830799
34363862
33996576
32793009
35487014
39123131
38351349
38387932
39292878
39931162
35347557
36999285
38700512
34901980
33961576
35540221
36749997
41130187
37690275
32527304
37449196
37857440
39064757
39376169
40584528
35956882
34087991
34767066
37104242
34720150
34787065
30259335
32842342
33230503
39795496
31060158
26418763
28510151
37337280
38909842
34456195
33670706
34474195
34909021
36029173
27886410
35432056
38376475
38341141
32246308
28205530
37001451
40004702
29398806
37605694
35809759
33729122
38526181
37583777
27835327
36696581
39337336
35681678
34697983
35833842
29921840
34430070
37682442
35045145
37333822
35756261
33479792
31183031
34500527
34353696
35918633
38338891
37623152
37777857
37309364
33541374
35281184
33964285
29614469
39326795
38601055
39021924
33654956
25351361
35334683
28789522
33744288
35558055
34316739
33948826
25394736
32414307
27717245
39190631
37468279
37787357
38333225
38517681
32204601
34793191
36543416
32381599
24345958
36233254
33119088
34396904
37921189
39415294
33750205
38287101
32737927
31137074
27949868
36065423
39006258
34157408
34224073
32608221
29632219
38184186
34626901
37129992
30603956
35178227
31735482
35380558
33598624
36624998
34109033
33749663
34324988
34104950
33666456
34407112
28401944
41094020
30178087
31684275
37550278
38958092
30950034
38346267
36441626
33216212
29481513
37692734
29034061
32398181
33230129
36106006
34538485
36151963
34053159
28960646
34235198
35643721
26889757
33782538
29715510
35374308
36784205
36483875
35972842
36175422
40270532
35531889
33545249
33600290
31307447
38199936
30867203
32871342
40530945
31995104
34239365
31219282
27979159
34069367
35537347
24875285
34196865
38086729
38022480
37538195
31892563
34426029
35001022
37701942
34004285
33712748
37708234
36512001
34726608
33584999
34216281
36691248
31795940
36376835
33650581
41018689
35295517
34445612
37936356
39565084
34597110
33668081
35728345
37286157
40360281
34121284
37263032
37587485
38792011
27834744
37128992
31480069
33735122
35236768
37584944
33540000
33863453
28516485
34672984
35501514
37173991
40810609
35394558
37905065
30383043
37419738
35859093
33911869
36015799
40282032
38371851
36016674
36122839
34955272
38418267
37566819
37959939
37620027
34489861
36970244
37070410
34891190
29616053
33425585
33512458
30699163
38225103
37527904
31770274
28619900
34908689
36213422
31228740
35813302
38303684
31057701
34878523
38633972
37215700
31210073
34915023
33449709
32843050
32347391
36984911
37145117
29291891
32648845
32444307
37674902
37794733
37689235
30471542
35719929
38440141
38005439
31188823
35316018
35103771
38326726
38948967
36031424
30191713
34890398
38130645
35133437
31460195
34825191
31798232
34685692
38283477
33467417
34660110
33956495
33946619
39647124
25007992
34829440
33107089
35690928
33552708
37971231
36709914
38131896
25648358
35123978
34820899
33332253
38713345
39505043
36420127
37003161
37603652
35336350
38342643
36955412
29083686
31973563
34241657
28714274
35116645
36556333
33233213
32208393
32416599
34633069
33251920
34792274
34712359
30611332
33917661
36778205
34349613
29201393
32450556
33778205
34317239
38129103
33071089
33945787
33739581
31836148
36232588
35298810
39617959
30104089
34669360
39059300
37979981
38062396
37874566
33705956
28656775
37762776
35211061
32071145
36147964
32097228
34471321
34163908
33516959
37684777
34872940
35305101
34482571
30418502
35808719
28578277
34075409
32647846
28554735
34494653
33928912
27469374
35233311
34831315
36922746
33461418
34101493
34413738
34767067
36011050
37421530
36791289
40918524
34491779
30292170
31827982
31074617
36089590
34303156
35994717
38571306
36673416
32068687
34681484
36128590
30328877
34243324
39444170
30916369
33457293
39214673
35865218
31766691
39515793
37417489
38349518
37624694
30973411
34740359
29356807
31526569
37416614
32556097
35844510
37363364
31653610
34529487
35651138
35382642
34058743
27649581
32396183
36128882
31899647
31162408
33532667
32676637
42537461
34606402
34997938
35741136
40113244
38466267
24322751
35960509
27997909
39648000
38718680
34323698
35608305
38076146
33255129
34944773
30450293
36315379
39946663
34762775
34813108
36256672
39373130
37245242
34747651
31929606
37773651
35153270
31958105
37622361
30443126
36051966
41087064
37266324
38007398
30725497
36993162
37874607
34675277
34855066
34596278
32280809
26185517
37378864
37958357
37763859
38680597
37886858
40280325
38764929
32099896
35453225
38849469
29828259
35572472
35431183
38761804
33364545
36517377
31957147
34708193
37006411
29855551
34668943
38771346
31574569
32613722
34845649
36918954
29898175
36160131
35319059
28574110
34707401
37642402
29687220
34903816
39847331
30083964
36658542
37717694
30287461
35479225
35075438
29262517
35175229
34578903
39439754
36268130
34816316
36518502
37355782
33252796
31789483
38749180
40753403
35326226
37606112
38498433
27648748
35277894
34692151
40846567
38160854
38724639
37065703
34413073
41299228
34038119
33127923
37235117
38653181
36560918
36203548
37653736
33748747
38196687
34507530
32675637
28089950
38215979
37130826
33594833
62428398
37019204
30894745
35424433
37044869
37231909
34485530
35961843
34694860
36003467
39671042
37593071
38243353
38837512
41133730
33377170
33489293
28521528
36663750
39758625
35515682
32479932
35906176
41163396
36483336
37709569
35378184
33432128
34808942
32983716
39005759
37700152
35097855
29250268
27925369
38446767
28343280
35892177
37236951
28819565
38621140
35387892
30962994
35979426
31267656
35929218
26813510
37982065
38413726
35342560
35520391
34429114
40614737
34909398
35478766
36065841
37859984
38242270
32994550
33607125
29848760
37628445
33279005
37599445
33327129
34122660
37995023
38350893
27131755
38069689
37467280
33957370
32191977
38388559
37847317
38078439
37609612
32332142
37225492
38267020
34425989
35661889
32534014
37101953
33690833
38781679
34785984
33705124
35849303
37998773
36871081
29812885
37741485
29401516
34826233
38897386
33356878
32535098
33159173
30931578
37364699
32833219
31836524
37571029
34482363
28623443
38660223
30987119
38022106
38312227
39019384
36759665
34789525
37263367
39556419
31144076
33105965
33351004
32507306
35942343
33997161
25975770
34713860
38416476
34188993
31287907
38765555
36109675
37517322
37741902
34498321
35506766
37843442
39631835
34978398
37439698
41099898
36063884
28285240
34267200
35401142
35673889
31927774
26371682
35863220
36052134
38034190
33305254
30584708
39507212
36644625
35415309
32581681
37838317
27591207
36295880
33570167
35435350
34054702
32365851
32083896
34647528
38646348
37238368
37999191
35618348
34494864
32405059
32661471
33593751
29127811
37674819
31427947
29144061
31401156
27841995
33942413
38280770
31926398
35002148
29180852
34636736
37587321
32278060
27439501
36935705
33402211
32504515
28770983
31507654
26984674
33434378
32701930
33071132
34657111
34786985
38602140
38453226
37990149
28154824
31594402
30397170
36615293
40987234
37792152
37626154
35302853
40828027
34484738
31826441
36162965
34699277
37847651
37058578
35207771
39188841
30619499
37331033
35198145
39524795
34530113
39147800
32986134
31785817
34860858
32535056
34254742
31336365
32294643
35262562
34053412
35515599
37025579
34256533
29523431
30380795
35030897
34715402
32960801
29891676
32781220
27215921
34451073
33654792
37196952
31870900
33204839
34632737
32560557
34830026
38138772
38304353
40645655
38104939
38058315
38006358
39131884
37791443
34646237
33337712
38657099
41093732
37015621
28045410
32748762
35413935
32024855
28340614
33829122
182214769
144293369
103319343
116774368
73423458
117957893
74219656
59673271
30953495
26920050
34764776
32017523
37159577
34796401
36616127
36294797
35831803
37715028
32744096
35446225
33727041
31644319
35792346
32907552
34013662
39025427
36890331
37393366
35081730
32788304
33881164
37478865
33928580
33655417
34531113
34697486
33479253
26477931
34497030
32045189
27624082
35875762
31900274
32181561
34790277
30307962
35555974
35110022
33743374
31452447
31560904
34012996
34405073
32040481
32748471
34801984
31395115
26964383
37297034
34826068
38253521
34628487
33590042
37957234
37778402
39191383
30846538
37878776
32987218
34776318
35619557
31777859
35344893
30773206
26244184
37713236
30640916
35796137
37526447
40527156
32719471
32855470
29957676
33526044
36697584
33666292
26458099
37653529
29498515
37038538
28748942
34968482
35657264
30449668
33945663
36902873
34811401
32322769
33384712
34346991
34618778
34171619
32276727
38431685
33295880
32538307
39379714
34047120
38784972
30309837
26982966
35390560
35891970
32747263
48602172
32801429
34260242
34310117
31894108
32746221
39169925
31462197
33777040
34213451
36185341
35472184
31490821
33705292
33237506
33840415
32632223
33428670
32215145
35179604
31279199
38490643
32188979
33600667
32063730
36996913
32234978
39313674
37771070
27086798
35049273
36549919
33372421
30401628
37679070
34497198
34710194
35490892
33900955
34056953
33640709
37646321
33107258
33641084
32627723
33423420
35090356
36639709
35848012
32175437
36059718
31488280
33389629
24738997
33532460
32799679
34615320
37246535
30241589
33957414
35388519
39412131
33600543
33297839
35855554
36552669
33558043
35588266
36342298
33522752
34989065
32176854
34142161
34279658
33134508
34461823
37040163
33695250
32866512
27121297
34447656
35612224
34049453
36793875
31615404
26175936
32279561
35446101
36090259
23994132
39030219
34607821
34356449
33341213
34348116
35431518
32844762
36837291
34703570
34458573
31194701
38543434
34796235
32695014
32890470
24983869
32125480
33228007
32710847
35571392
34229951
28541237
35526767
37191536
31896275
34919817
32303602
34505156
35482101
29780553
35017733
31052078
33766458
38275646
32601390
32860595
34834068
33608501
35541558
36996330
35986302
32336185
35296979
35253229
33947747
35303395
39059761
31035286
28138159
33477587
34962483
35984677
36281006
37773986
31810692
39979748
34578071
30500877
33329088
32543058
37738112
32954927
33963663
32507308
37601864
37435366
32859679
34180577
33728333
31851942
33481170
34931858
34206869
34239284
36123884
33646084
36294257
37192161
35943761
35448102
34576947
35680390
36042760
38680766
33512128
33496962
37704821
33715625
37170203
36997206
32811220
35246646
34655488
39989581
34067912
33631209
36216466
34006080
35878179
37209244
39291091
39214842
31385906
33793415
30895122
33266382
34314909
35243229
36086551
35496642
35056982
28043618
33862540
37307659
30670458
34829485
35108148
37660905
26739178
40677239
32949761
32715806
30898539
38127357
37775154
34305200
34935609
51861879
38709265
34895651
30729499
34447824
30900289
34033955
25508695
33107800
35169272
32438143
29463350
37291077
33270298
31919358
37654822
36928373
33592127
32701681
29031855
29948718
32543891
33274340
33016135
26501474
34000247
38737641
41255564
40220370
25304114
34961317
37644322
28156159
33341130
25887982
39105843
32005357
32739138
30093549
35844805
38849972
38587768
29782013
27217880
27297712
27635791
34218994
26312475
32145272
34706987
24994244
29168146
25832357
31664904
32419893
34887651
33890248
32251770
34627905
31913816
35805639
35331520
35083607
31592905
32227563
34945151
38262231
27522376
25995397
26366434
50154444
28387156
35171898
37410492
37597115
37260911
32761430
33291131
31542988
36540837
34506906
34495240
34218161
25804067
26986425
26390933
36014344
34699071
35572392
37836153
29716721
37101829
28796901
37114662
37587156
34161911
29888303
33389922
34815111
29282769
26625263
34222244
37126788
32518725
34217994
35450268
36354464
26405641
41451145
38497477
37603656
36142843
36860708
35981637
37791237
34371534
29756096
31332992
36021136
33495837
27741331
34116579
36162425
28905108
26465474
34207161
34106204
36025511
33950623
36413047
32133731
35895804
35066732
34544531
34479240
33808499
34988733
39326966
34143953
35062524
36960040
33964373
35449185
31285326
24534667
34952692
28205992
34868569
33638918
32172897
26648055
35662016
26437975
34820986
34907818
37432284
31711361
35276354
28132535
35851472
29463225
35479726
32694306
34720779
33975164
35949179
32377394
35115523
33286881
34917609
24600708
34620196
34696612
35544476
33269590
24935579
32325520
31784193
33069634
31677070
37735738
33472754
31890317
31249160
36531546
36364090
31477531
29587724
33995372
35900971
32316645
35364061
35420353
32360561
38160523
35572642
34839611
35738765
29156063
37948693
37108454
31984400
37563365
38763183
36941873
42007347
31631362
27548043
36679669
37274994
35129232
37162120
35607184
35385686
36162759
25124243
38266439
39946874
40894820
33964456
32169730
36127135
29753138
32133981
26070896
34960150
37125788
38539518
38898431
25373530
32400185
25878066
38489895
29820345
36121343
33664919
31766777
35496643
25745484
39841376
39369591
31563280
35734807
34875277
35280896
28134243
30442587
35443394
26043730
33387505
34220411
35244980
38584435
37014915
35238564
34089621
36682127
33052301
33494879
34684988
34121579
40154872
35073274
28748068
37859028
37087455
29465142
36026469
37158454
39264134
43329120
39014804
34688446
30789999
35929346
34415908
35442978
33334965
38571935
38021068
32073190
38935597
34670238
39656754
37449659
38062692
38439937
38871890
35937887
37928194
39574005
33765126
34664072
35868555
34333534
34999317
29640765
31476240
35315437
33678543
33227758
37822779
34947651
27673000
31632071
36094552
35161149
35751807
35388854
39131845
35297688
40283120
39226760
37477992
37243204
35430728
37658906
37806737
30808166
34509782
33909457
36283050
34851819
37226746
35301896
26515557
37887195
33148676
33295007
32307812
32115523
37857695
33432880
35138607
31014205
36105135
37362494
39233635
35770223
26112646
35838764
39062304
34706821
34057247
33924499
39091345
35107482
38704975
35025650
33853500
34689405
31798860
31985274
37259286
34491074
36074427
33574295
31370700
33791167
37991068
39657212
33413672
36935041
38384646
30799832
34711529
33503045
33403172
32087732
34226994
35162232
35352104
30107467
35466353
33636544
38251981
34809070
27987787
37483658
33070593
29116814
38168358
32938762
31046579
35504394
37178538
40863737
39428632
33454630
33033844
35323897
33882291
36733960
37395452
33768917
26436392
39221594
38075192
38643351
31369200
30391755
34198578
38897640
30906373
35211690
35041109
39538714
36539255
29453226
36005054
31413907
36178593
35548226
35444061
28075870
38128400
38123651
29234896
33461713
39748836
35144066
34604906
39475799
34131829
33217134
32925512
38949139
35891347
32337104
35473019
34498491
33815417
33374922
33123843
36252884
36735586
34973026
31294493
36283383
28104703
33634919
38454770
38727309
37882903
35248981
38081192
39125428
32180772
35564559
37316745
33294591
34669072
38830641
31264951
37555950
28978649
32444686
35548435
38499937
29755138
35635934
37431118
33177634
34889444
34808737
33486504
32721516
34898860
34881819
35425770
39313717
35814890
34293285
33419339
33611795
38266107
30426962
33836083
36028679
25941815
37996861
34554449
32127231
33905957
37972694
36931666
35500686
38783391
31879401
33950373
37599865
33377339
31647863
33443006
34519741
38938222
31105746
34702489
36040428
32433477
34544282
35717475
34141871
33123884
35188232
36968416
37962944
32491268
27720667
34858612
32363437
26685139
38858640
37318744
34566074
33305965
32045025
35000193
32071816
32709807
33868791
27947747
35609934
39273426
33212300
34911652
36262051
36212760
34955401
36506506
32199022
37829863
33852333
37165122
30623794
38763809
33780084
37741656
31090287
37473410
32845347
33209926
35645059
34078955
32149439
34970401
36416841
32575392
32442727
33837916
35675558
36055345
35384645
32171815
33549170
39075262
35688683
29116814
38968014
37214538
31360992
36450048
33762751
39705754
36836876
34786904
29861679
29854971
36948958
33707169
33190509
31794403
39646088
35702767
36179844
37492867
37827738
30513711
35379979
34176871
35089941
34504699
38975264
37261412
37727448
37532783
36113428
36512006
37889862
37088664
35021192
29351937
38663894
38217108
33267342
31525157
35484895
38138400
37391785
37594783
38929973
36767211
33506088
35976388
34672947
36524131
38363564
33418048
30648710
35568519
35149983
31873111
34622364
32780015
35779807
36086428
29926720
35293231
34073289
32858556
33700253
35456854
33031344
34826903
33197051
38860849
35032109
36325508
34874736
33419548
34913986
29811847
33507005
34514408
38884557
33846751
33865083
38243982
38755559
31362159
32146607
29334145
36297967
31090955
34821238
32298188
35412521
34320618
34413701
34761779
28091994
37982236
39525132
37364203
32516894
33949208
33577463
35017943
35477895
33808959
38393980
36447632
39085513
32510769
25595237
33206259
33526838
33108468
34983235
38039318
38106276
30889582
35445604
34544782
38426897
33476089
35929514
39436300
32719182
37815405
39380675
30214300
32173356
35204482
35778225
35271273
34554115
36805627
38758226
34944319
34340744
36313217
37919946
31689488
33607962
28179369
35722058
34101830
34843778
29353520
34880778
33062594
34242037
37291370
36510131
35706101
33436381
34166080
28136494
35281314
36084220
35988972
36280134
35808974
36074470
38793559
32995054
35480479
35357897
38156275
34631740
37742656
33567463
40093833
37128373
33806293
37861904
35999888
36892959
34911695
39855878
32977595
28593447
36340133
36933084
38836100
33665836
35578519
35864682
38439563
32445311
36656588
33690252
35252565
28299493
33836084
33738252
37241663
35411396
33463672
34530783
33094969
37773864
35674393
38520229
35048484
30146092
33497672
35254690
26268311
33470589
33634504
34552449
35321105
34371744
34870778
37432702
27920872
34909945
36490299
37593534
33395882
37502159
36925542
30568670
35818058
31025664
35228399
27260799
33864708
34302036
35003401
34000124
35261065
32236272
26800721
38842767
28015454
34940694
38728269
37409745
28374325
34040957
31875694
35266232
34534742
41000779
37536909
39763754
37033750
30610586
35503854
36218468
34318370
35531853
38714935
34932986
31022122
37640491
28633988
36400341
34914028
32704975
32688016
36093678
33401798
35200440
37537784
34420076
38656144
37209580
33763002
38680977
37651074
35787475
32740224
35617893
29881221
34752155
33771793
26991177
35883473
32346396
32281355
28475240
37439744
30726085
35208316
32629059
35807849
33358215
34267620
38567562
30572170
29425519
35635019
34411869
38236608
36584839
34763822
36376509
35214649
31328368
35257315
32387812
35327731
39461591
33174218
39041014
38441356
34991361
36955959
39514841
37038000
33583922
35655894
30985415
36300093
30195884
35412522
34453952
37989903
36895710
35142317
35979472
32912263
34018082
36125679
33754544
35027610
28200869
40303455
37243914
33862959
31530741
35369272
35643560
31109913
33713919
32764474
35244691
33915709
28346492
37788072
35218066
39879795
37294121
39010723
32223690
35742142
35044527
39103972
31396701
37616492
32288147
35625060
32962555
32385687
33781835
27492420
36182053
26217979
34231120
34132122
35237149
32384854
33971374
33052886
38444647
33587421
31140746
36007972
29370145
33566255
36480091
32288564
39280511
27084051
36596381
35491937
32604142
38181526
30733751
34293786
35731934
35324397
33168344
40866032
35405981
35385064
30322924
32317730
36027389
31689072
34598533
31729280
35826141
32470812
34380577
28366325
35125192
35287106
33632546
36466549
34084456
32726308
35661935
32896514
32493478
36894751
36112971
30992748
33406091
34932529
38721310
34334537
31485616
34153122
39065973
28683820
35846641
31993985
34743030
35913973
39036472
34268204
35865766
32811057
28135787
35812933
32020151
39267803
35877390
31987985
37551576
35299606
38453314
32297064
32347730
32675559
34768114
34205038
35752809
35565353
35439313
38971265
32748891
28372284
38720769
40569494
33474839
35303273
34566034
33880668
35173150
35380273
34451826
30196509
35260024
32858098
33641504
35250649
37693991
37247372
32959888
33052304
35772267
40335497
35119109
34753114
33704587
39611049
35603519
29881680
35622353
38918391
33937251
34933904
39276428
35055485
35124193
37177081
38564188
37399828
34256371
37809240
38481064
34260246
32508728
35593644
34611825
27673877
33840168
39376386
36887127
34919903
32977013
35822516
36531798
30711044
35021443
33114845
37903113
32209607
36986793
37697075
32037067
34813905
34910071
34740281
32703767
35139900
35639394
36322177
35680268
35456480
45532011
35954473
32456646
36416925
31918695
38323775
33126511
37814532
40834907
34016499
34579908
39269428
35169400
34702282
35942473
37600035
31596949
38571688
30888000
34831030
36995334
34345662
36570506
36433884
33331634
28392784
36799295
35603894
34035040
34518701
41045405
34084915
26988803
35792308
28516656
35327981
37960321
34556242
31934652
33550631
36522382
28420699
31161788
35389648
39062223
34903612
34859821
34145122
31282619
35481480
31821945
36294635
36966252
36376093
34093998
37270247
33380841
36306385
35566270
36663338
30764169
31908986
38254484
35718310
39433593
34374036
35426731
34992444
36455758
37700283
32525853
33435716
33954584
34238455
36032222
33619838
37652992
31198537
35108443
32901140
36534882
27395714
35298149
35335023
34358953
35599311
32206774
33782252
34894987
27164133
33546923
37624909
33843585
34284996
37981362
36728421
31189121
38525397
37803865
35221024
34569867
31389993
31243870
33985874
37867322
34915862
33845127
34437744
41414108
39302929
36739588
34520618
36999710
40275707
35086818
37052584
28852153
35545187
33553422
37697742
33621005
34584533
34530285
26480518
33734628
38868767
33797502
33946459
37763908
28676780
38229859
35818184
28454575
28729988
35214066
30598796
34093790
29080733
40688702
26730847
37250831
36298218
37292456
35112818
39100722
30039303
35036778
36467550
34341245
35114943
34303246
31848821
32810100
33842377
34899780
37864448
31965069
34508284
35326357
37138916
28079580
34528284
29396103
33881626
31693489
38488648
39317803
32868265
34226872
35929474
29625059
34102581
29986804
34678699
33813919
35878891
33719670
38571272
36022390
32985181
33187427
34806197
37027792
39557716
37944655
31672739
35199818
26528892
33039971
49273044
36511550
38433232
29904971
36070597
38288692
31117914
34328162
28497032
37518244
32446562
35729476
40515329
35747935
34925488
37930197
37832490
34665907
35635477
38552605
33811460
34871905
34689533
36935044
35420815
33700004
37502703
31868112
37030959
35840475
34095582
34846405
35939599
32574228
33598547
38401232
34829156
31823237
34347662
38008862
36631840
31208538
33909501
34115082
31296620
37839323
30133761
35090027
37036251
32285315
27021261
32313648
36266427
34034583
35555854
32032443
35622270
37064334
32626768
35236775
39443552
35344816
29468977
35371856
28204911
33864210
35632394
34802948
28537699
34924862
33213969
37282039
35950182
30730044
34504035
39747714
33920043
39708757
30424506
34206581
37246040
31118289
31906570
33293301
37840448
38620313
30468047
36184471
36823587
34075458
37543578
38885142
34466869
31607949
34378745
35883392
33779504
34896864
33182720
39019599
35697769
33164179
34690990
34238414
33223469
35736685
33907793
36410718
35666145
35561187
34976653
34863363
35539021
32072359
33561215
28050747
33799711
37512953
34615700
33231136
35354523
33216761
28215578
39334386
34336037
35851434
35397814
33812086
35741894
36230470
38761644
29533061
33368718
37718992
33149220
35644895
33175345
27489254
35587646
36111638
27712710
35530522
36122555
26114190
36993252
32894391
32950556
38182653
32713726
34532077
38126695
38525439
34858156
32842308
35006695
40068586
33088388
38463607
35323649
28916319
35218484
35425481
34258789
32208608
32488395
35219276
37344914
33069054
34492494
26900429
35214609
34110832
38561939
36921169
31630158
35504230
32351397
35440148
35971432
35710644
32217733
34977778
34756698
32713434
34787406
35654520
37036292
35200859
34887947
35358274
32563894
34813323
26756807
34742532
41820811
36200263
27837167
37927614
39566593
35378357
30550714
38857310
37851074
27241841
36366261
38184319
34238039
35881183
32912140
28943069
34306038
36496633
26494977
35751019
30233802
37540577
37890823
34372829
27616670
36025223
26360895
34156040
32873766
36149430
35547729
32600728
27621461
40226750
37144667
33637172
34276455
33272552
33424717
28033414
27383881
35024904
33482590
35472523
33376134
33671796
26690391
38346901
34747699
27718086
38231444
39088849
33241011
28555616
34506869
36525591
34293246
35798935
36926294
35066653
36859087
34336037
34407787
36086056
34656075
39790048
33629089
35384941
40794701
32638894
27469672
28757446
35591313
32873349
36859462
30107136
37186041
39047724
32873933
33815336
34500369
37583577
27192426
38019738
34892947
35835892
34081625
35796768
30336300
35842768
29486353
35031361
32653352
35461106
33109721
37831908
33391634
35591438
33035888
33348135
35900225
31596908
35732519
36877087
33509799
34579285
37632952
30383049
35387815
35481981
35678645
36413594
33925168
39072933
32883058
34123040
32206858
35357900
31227580
37055418
37676492
28596032
35952433
29005860
34465369
40991449
33790920
38172487
34886488
37544620
34988446
32999014
38492232
33202636
36351428
36634632
34159582
37800325
31592741
31486576
32182609
32250441
29479437
34185123
33478216
27125301
38165278
39183515
35729853
29463311
32754018
34908280
33822587
36003974
39347846
34418037
39097765
33614798
34805115
35509272
34387163
37863865
36415843
38420442
30343383
35372483
32625519
32027111
35255275
32877933
38994642
37862199
37090751
32916516
33504924
38762020
35437607
32570062
35774602
34759449
35197401
28491658
34952280
38764271
32041027
41551066
35744436
35569522
32696185
34283789
34473245
31401536
36860087
34013001
30899418
30288926
36108598
32818100
35710269
31187455
35476106
31082582
37875032
35429357
31356161
35604896
31659865
33421592
34813031
38125237
34713367
34866947
32992348
32402731
33906336
35461898
33622965
38287443
33643881
35901517
39337721
37092751
34020417
36190097
34265706
34486577
28320327
39760632
39339930
31977528
39003976
32784309
35463732
33422009
37983822
33422300
31125707
36710631
31681240
29064651
32815600
33700297
28874404
27996040
35760894
33781421
35270442
38192444
35225235
29335772
35224526
37564786
35262609
36571341
37299707
37265040
36475468
30534672
35084736
35166985
37448997
34965446
32014986
33004515
38307235
37852782
33585298
35065820
35190610
39295888
37888824
32233067
37476829
35649396
30502965
35267859
33997584
39078058
34924572
26969388
37982615
35514522
35596563
36903878
31989778
35187943
33726088
30706045
34771324
35680520
38367901
38949935
33351469
38355734
36538508
35579480
32098360
33110180
36522217
30232802
39250556
36244637
32847100
35967558
35267026
37152709
24916957
39093432
35639729
36945462
33219137
39733007
36508801
36828380
37309332
28519574
38190362
37909032
34752907
26694725
34691200
32800684
35891684
31303454
35939058
35508606
32090735
31435994
31909737
35240568
36465593
35176235
37475746
39399012
38444566
33714339
30308509
31624866
37474330
35774436
35347608
35414982
36107639
32937432
35052071
38767687
35252568
30337134
33741171
38307486
27990707
33362552
40986449
32770934
40410082
33806337
35817185
33195512
34565243
29231648
35822686
30212344
35058570
32876891
35253360
36348720
37531913
35461315
34809324
29501187
36656174
35466982
32406815
32439855
35279651
24763834
34168916
35171694
40533955
33595006
38983226
36510010
32291483
31047166
36072057
33706755
36611049
35420316
27545172
31451702
34281790
33227678
35872892
33698630
38800687
36388178
35023571
32315107
32607561
32197817
34722909
35877559
33140013
36249263
31519618
36156056
33252720
34292955
35465440
33511675
34595868
39785132
33742463
31378328
35770478
35436482
33316927
34708076
39604592
35651854
30337759
34363913
35561480
35059029
33763880
32797267
30054513
36481385
32139027
34751825
35974725
33454843
31372037
34117374
33900503
35501189
35588856
34749366
29437937
33692005
35972100
33308011
34376913
34949697
37379373
35928809
34300123
38666022
34224291
35647646
38338568
37597328
32668436
33472634
34112875
33579882
30732004
35690354
34983655
35188194
33651007
33886545
26822348
35532440
37398664
51502142
30138804
27765502
26935888
28113081
32871475
32741685
35383275
33599882
37752284
35168320
31206164
31682075
33613549
35316859
35370650
33418968
36004349
37125376
29845349
33943377
38128071
35802519
32520813
30304051
31349746
35261443
31093916
36777506
35749978
36726840
30313343
38015073
39508553
40461457
33908503
38584648
33447884
35638021
32347232
33507175
35654980
33905795
35221902
31027542
35892601
36105390
34426954
38282820
37020461
35318818
37684410
40140127
37040253
40704870
34796324
31480244
34497453
28368911
36327929
39168724
37302582
37876741
31497202
34704284
36160473
39140808
35004697
32689769
38534358
34369496
35766103
29780392
34465871
38303819
32954724
38787854
39945547
29896515
32952557
35168236
36373887
35856685
35521023
35744312
36556551
34800991
36521301
34998697
39442763
35010863
34580952
35756353
32257900
33701131
32945307
36443928
30600922
34395580
35206277
32180109
26827806
34311289
30949126
36113223
34546703
28935986
37298374
39149975
35233235
38896853
32560813
28674907
36414970
31967488
32987015
30853836
34529537
36675090
37370873
32562730
36021308
33252929
36578300
34159542
32205109
32202901
35351025
33043223
29021735
33500092
31329912
31732615
31593743
32820393
35964350
32454023
33991294
30792295
32873559
33443343
35572648
38985685
33951294
28855196
38481858
30637881
38561149
31611951
32336108
34808032
38902728
33430884
31719032
31502994
32235318
31304205
31761407
35537940
31871530
33831879
33613258
32014737
30707255
35045738
33818672
26959513
37999323
40063421
33005682
30855170
30527049
28530117
38864020
34702284
31766449
26755933
36675716
27709378
34857241
35837060
33219138
36836130
37937824
29316607
38643524
27607629
36032683
25730196
36517718
37871075
34593286
37164751
35188361
38161905
31696117
31196665
32735436
32334649
34850657
38850979
36039642
32622562
38041157
32861392
32796185
33276470
36359429
33027349
33755839
32842393
31798865
35086779
37486288
33106806
29698809
36972253
34253498
31820906
31529327
31969405
33215888
36093682
36622801
29044110
32384815
33594674
36838298
34990280
34630077
27316467
35267902
35739145
33936711
31102749
34558828
36175307
31780865
36640509
30186553
35948892
39115017
30957293
28530200
33143388
33874045
34602660
33145305
36219639
38745647
36859922
35243486
33286678
34710326
31271872
35484524
35815269
39150100
33256596
36285847
30187136
35114612
29851516
34929532
35106237
31156457
37799118
33776172
36903005
34223207
34374831
31252164
32577313
35303193
29208233
36092474
35006447
34323623
119626479
79289853
34380872
30994209
120149930
75322865
46389961
34503079
32427982
27215593
34108417
27559963
31577660
38423651
34215750
32859309
37797326
37025837
35944684
34158792
35413275
34165500
30497424
28488035
34213416
33911420
28226205
36519385
27270467
35546899
29694477
33892753
36307055
26445479
36084641
38891770
39561678
34173416
38444901
36149682
27712545
35857353
33560425
35091196
40428624
32155860
33203555
35531565
35307026
25229120
34616869
34935781
33240096
35766062
29461147
38443526
45302642
38290237
33148847
32276442
36370262
32261193
31327371
36000559
33465009
30210511
33164763
29842975
32111778
37517997
33231387
32878601
37956366
32721811
31840115
34136417
31491036
34811033
31284038
30859712
38294112
31062375
34963698
34749534
27147636
36552968
33119014
38555317
35257319
35934310
36176974
29496063
32350691
30725588
33576217
35832520
35056280
30697131
34991073
33380552
29728768
38960770
37825285
35662522
35078529
31184540
35107863
34153001
36244098
36824298
34192667
31526911
33952045
31653409
38894312
33933253
32106944
33169513
37970866
33664215
35145737
27276926
35713105
35067029
27999583
34467954
35127487
33782214
33730465
31347413
32007071
32624854
36377512
30637423
37288500
34675160
38364777
34903532
26230981
34106709
26332689
35037114
34568370
32773352
38064157
36072142
28299245
29499730
37377208
34026253
32113320
35166862
33077348
36287763
39037685
30281136
33002058
28724573
33426677
25647698
34028960
36920005
26779349
35789979
35225111
34574370
37658287
38859604
36850631
29360565
38317445
34460788
37491747
35203403
28944029
35269152
37302959
33781172
38551817
36914089
35612690
37229501
29129026
33347095
35979143
35575231
34029419
36560135
34858867
29185817
31499119
35080072
37940908
33086473
36276930
38341444
33157347
33176597
38665607
36385637
34301415
36617510
36911256
107617100
68501290
31890989
31064375
31381538
36534719
34532495
33454843
32617604
30972335
31554244
32484398
35323693
28965612
34080710
33355720
34803992
36885381
34262416
35723271
37634288
32514815
37278584
37863117
36599801
32048363
32530105
32954933
37583705
35422900
32002030
33925129
31442787
30959585
35971893
36829132
36151891
31250582
35273069
28918071
38448110
32395191
27249593
34410955
34673536
37673787
33083932
33537842
36638718
38469359
34537371
33538717
31489954
33917545
37475956
36182641
30286303
36391554
31916448
38590983
34431664
30483341
35219820
27643963
37044796
38328237
34471496
28615325
34236250
33824505
35170654
28851072
38943145
36154558
38110781
35632647
35308235
33872338
29589353
34379664
37619871
32875185
27596297
33669591
30243803
31506078
36714675
37211960
35382151
37656787
27585089
33451010
27409508
38842939
31881198
39024519
33496135
33829630
34635037
32503357
32336276
36873589
36058892
35058406
32360733
35539857
33343928
27384717
30845129
35116530
31310622
32023196
32708395
29312399
33574884
35873561
31818324
28341079
34221667
36738383
36071267
32871018
33726715
35648481
34965990
35110072
36067017
35313777
34042336
36002477
35573815
33482052
34254583
37242751
38764523
37942033
28686074
28200914
34129251
36438262
31371955
35696605
28764699
34420498
33929921
35037614
31911573
33032474
36178307
39740468
31897197
35281861
26720142
33210597
34829909
32413274
33157390
38077282
37393541
37662787
32190818
31403496
31110292
38995436
38599441
31660202
34551954
34859284
30954793
34826159
38620692
28453869
35630107
34814367
35879728
35511191
30759921
36041309
34594453
36793466
33784298
34716035
37121212
27489132
33344762
30879212
33523010
35503567
26687684
38737981
31337039
37525664
31806783
31651784
28754157
38430486
34237874
34331415
30803963
36481178
34847116
35200154
38835689
33953379
35692481
39026602
37311167
31796616
34356249
37950325
33383969
32936309
36178140
27638755
36158183
37978741
38901688
34950115
33560759
34790118
30559216
28961238
31576744
27780628
38680357
37389833
37863285
36867590
38577692
37096129
34111043
38067741
26338606
34215875
36618385
32435441
34712702
36637551
32338775
37948284
26606311
37160003
37275959
30780838
36022060
37365375
41278031
31479287
34576704
37650537
27760128
38097615
32900934
38934520
32589897
26411480
38609192
38293154
28493535
36251182
27478174
33238806
37299668
38854688
33912837
35964144
34790910
35630898
39307849
35217487
38878229
37556498
37492998
36750591
35637773
32980183
98439724
29720102
50785445
34626995
29197026
33984629
33785965
30175929
35846062
52282300
28629284
39825467
28894280
34554537
28681866
38221614
31701785
32541231
32846977
35550816
36327722
38161781
31457537
34605411
37775078
34021295
40112422
34502330
36655968
37264043
31364913
36222932
33430094
35874062
30840546
27354801
35521275
36805091
32970434
28854781
37899035
37031838
34197875
39420764
30631090
37274960
33911671
31066293
34917782
36915798
38736565
35885769
31988156
37145545
36642760
35155196
37122087
35966186
30653923
36258890
31265623
34936949
35453443
38911021
35808812
31017002
33838922
33046141
33463927
32520773
32461649
32409400
36034310
35904644
29220234
36914590
38209947
33429136
38373153
34100044
38439319
37208294
36296306
38731065
32851310
33895297
35611023
37937076
36844424
28828656
37180877
37485957
35492233
31829449
33830964
35395985
31395038
32458816
34582412
29453772
34108960
35142863
36811091
31165792
34425248
36249682
30634548
32489316
37896784
35283736
38893021
37930701
34143793
37560289
38882855
37574123
37965200
33571759
35413818
37856077
33371929
38453111
38138115
32396359
35531524
35711564
31262540
33430928
36254390
28709450
37343667
40266795
32765812
33097141
33107808
35921978
31737450
38801314
32424400
36374805
31424746
36834466
38495318
36917590
36933548
37936534
40761330
36555886
32726063
36695093
37312084
30226680
37729870
34293375
39239976
36875716
32903602
39039437
28952238
35393235
31440121
33541510
31919989
34174709
39160727
34076545
35343569
38816231
37765245
38027908
34765160
33013058
33018975
34677453
35896812
31796700
31826991
35881562
32595189
34483247
33059141
30203930
31767409
33338929
37573414
33675466
34363332
34393832
35793980
35300278
35430276
33254389
34811993
39713427
36742508
32837186
33486302
32524232
24337550
35969810
33133640
36673552
38324696
31422163
36240057
33574301
36446346
38593943
34732911
35296653
34458623
39606971
30740089
37840077
37598539
36994922
37807453
36847591
33994670
32251903
33600593
33309180
36271098
31715076
37623914
35550067
30685215
27788628
33343430
34243334
38982228
35044365
34555497
29719645
34025045
29214693
32585606
38154032
30135514
32631481
38895688
37885827
36844382
34351625
35440484
35177697
36153391
40870953
31208499
33033142
24607212
35942311
38434611
34954116
33844672
32916518
33476095
38084741
27379134
36404805
37085254
31429247
34697786
35755897
37087546
26502062
38831939
37186337
36777509
35451235
37141753
38723566
35043199
35258070
31228374
32506357
34986741
30596425
37610622
37913410
37206128
36746342
41546278
34861368
37830870
37423292
37634372
35619648
37779079
37350042
28547410
33324597
34489331
36951131
37929493
36847258
36736884
29712978
38246239
26002944
35150447
35791772
39540805
33952796
35342694
38448694
34930116
32818937
36744759
35784855
31799742
34457915
34265292
34953699
35062323
31408539
31856575
37855952
31943115
39392349
32578898
35840729
33410012
33254180
39455348
33825132
27760921
37891077
27620506
38802815
33947463
37355751
38653359
32662147
36101935
38550485
34162669
33007851
34401832
31596703
36111726
36929049
36222058
30592342
38813857
38916564
36794800
38985604
34161085
35360569
33648217
34939617
37826828
28275998
35829854
31350207
34130835
35319362
34274292
36860966
38019159
34791911
37993868
36896965
38358488
35262404
30353845
34931034
33470677
31779993
38028534
30633258
32667980
31720784
38665608
41054743
37010672
33751800
35488568
37199461
37693747
38365071
38665151
27156845
32909518
36046061
34916325
30776422
35115989
34947241
27196303
33409179
33106891
34578704
37091338
38342446
31525954
38651192
34171127
35981644
34683412
37461999
36122351
37894119
36780967
32270485
26354982
33643926
28708033
34089669
32720771
33885630
37096005
41183158
31878825
32741438
27441008
35609233
32298902
34011546
31615411
34646204
29033279
35383736
34831993
37365334
38673608
34532956
34212794
39012687
35196113
32867645
36977964
36610720
32652439
33374096
32440067
32443984
35475859
28370121
33963171
36391097
34915075
34188377
35103948
36574595
36899424
38016742
38635943
36850175
37258336
32460984
35479777
34174836
36389181
34239835
37788246
34694995
37904577
32305860
35292195
37728122
31317957
33940213
31220083
32833895
38081408
39780886
33528927
37539207
39524389
30518759
37025005
38026659
34859409
39703179
36988214
32857269
38546402
37618415
40622791
31482621
37339043
35389986
34903826
35529276
32559732
32774729
28452412
37788120
36623344
38523360
36577553
31184917
37005839
37474666
35172739
27864336
34637871
37429084
35827105
30026308
32733605
37168837
40384253
35738648
27153512
32956810
31310249
38771441
30908838
33972588
34052921
37217712
33455512
27675880
32948435
36200350
37463834
31604203
32832729
38906564
36989131
23337022
37199836
36129185
30580217
32134904
33147099
36146642
33541427
38125950
35658357
35158031
34468374
37519458
36728968
35334903
35677399
33532553
29505731
38206448
35888146
30641758
34079378
35517234
34976450
34115919
39053854
36385223
31349581
35320612
37135879
29152569
38016201
36417055
37541291
37176629
30362969
35500817
40960578
36011353
34485831
36430472
30811964
36199559
33772591
35493401
30154014
36264058
29260402
38465236
36085227
37034048
37722413
38281198
37154963
37715289
34725703
32638106
37415418
33158891
30498759
34828118
28913531
37446834
32704563
33277639
39116644
37112588
37737538
36910674
33724133
32331694
38735274
35360612
40430252
33528427
38478111
36819967
32388693
35002742
34822910
37850620
32249319
38811732
34007130
36154684
31616911
33667593
35515568
31659078
34349333
37461250
38146075
38785816
37352460
38846356
37994201
37756746
31897991
34293584
37469958
39275476
33695050
37690331
35930854
34885785
37925619
37316461
32681064
35618275
29112820
36552845
40568875
28733158
34827035
37955077
38807899
37009923
35950979
39635597
34265126
34800911
33965880
39257893
35554568
38534444
31774701
27050639
30061183
38536902
38144032
37304461
37374710
36518096
34310542
34787036
39840385
34291209
36144642
33549386
33157724
34038671
39035896
28052459
26157526
28125167
35776314
36090727
33703550
36915383
36907757
33743550
36252017
34943992
37828662
37699289
36660802
38575943
34431790
36758926
35644566
34090962
37707997
37967993
34717703
35634775
37479791
37785163
31532746
33088392
32563399
39149686
34845244
30237013
39248310
36858217
37335127
37356710
61682469
32320110
32392776
31326748
31313124
31826576
38860190
31214750
38332113
38682110
34793536
34189210
31906491
36970924
38661068
33122600
38681276
39129937
37206087
32662273
37687039
34017463
35279738
35744107
37744330
31409582
35163697
32766980
35473943
39007272
34080921
38553486
41089952
37236212
37849828
32009573
38721609
29165152
36519638
34459832
32299278
33973589
38186241
34204252
27662298
33597343
35454069
36203642
36467638
27419884
36613887
31769034
35587151
33572636
34576247
31586370
35232363
37548416
34587580
38673317
34330125
38324448
36262683
31927033
34648329
35179906
25062541
34285252
35123157
35577025
33822341
38972939
32519858
37559999
32520733
33822341
38962606
31573370
36231642
35689733
36230642
33224473
33934215
34301834
37556499
39106687
35738398
31933157
34708787
28068876
35058324
34924326
34175545
37470375
26961307
34887534
35120240
35224780
39083978
33483345
32098989
31046294
33325639
34144169
35447902
37346835
34063920
34684621
34070712
32299194
33623260
36998590
31861575
35220614
32460068
34609497
36225351
35129282
37384084
33039309
35778939
35020908
27549258
34200586
33121642
34152086
31439539
32797938
33028268
25127248
34432999
34696871
35089448
30836672
35908729
34323959
38096742
39080479
31522830
35723398
39109187
35530568
35263197
31484581
33733675
31281375
39514890
38137241
34185960
35584233
35564193
39010814
35050782
32172488
35694732
35622484
38011618
33914798
32090073
27362927
34457957
34080420
32769105
37178463
35051574
36543513
33045851
32444943
37443876
32055865
36208434
37950369
31570579
31917033
29444857
34592247
38214949
33180558
31893867
38572195
31108419
35879313
32885978
33130308
27479133
38240116
37497125
34696413
40764123
25940279
38804983
33895090
35395445
32970269
34327167
32650815
35697108
32671814
35803398
42503475
40413003
33120558
35809981
36503514
38018244
32844313
37044298
33086517
35252280
34539748
35628317
28052376
32768563
34645663
34578372
33138142
33885882
33997089
31203626
36022436
34616830
29929851
33804091
33520637
36547471
34615622
29703854
36354891
35097407
38260282
38328906
38198533
38449529
37126630
39848552
35435402
38982105
34961201
32459400
34949701
36592179
27457051
37157338
36811842
35751399
34109796
34580414
35775815
36977674
38527903
36570596
36523763
36026020
34471666
33214640
34302793
36805510
33434263
33563761
35115866
36337890
39801136
32273029
37151421
38868440
36832301
31426498
35293363
35404612
38346531
29613605
35388445
36960132
35006867
34121962
34746037
36586387
37237212
30565968
34438957
38322448
35206031
35605734
27175721
33456721
35489777
35631192
36077894
34790120
37566041
34897368
34028463
32726689
32218070
38993897
38132034
37544542
38557320
27462343
36181477
37657248
37658207
35327321
34290918
35505652
31524039
34662955
33235057
30988129
32550066
34146337
35524277
35245531
36138268
37926703
26906725
33118684
38821483
31545163
38098951
39278727
30199223
38404238
37937161
37704582
34771454
33611010
34895327
32078573
31407957
33335056
33441430
35123823
33736384
36253017
34187419
34357459
36372308
35971021
34505749
37791789
29810769
36100352
37728497
37611999
37924745
37351378
33701801
36132893
37384169
38370030
36917133
35203073
36116435
39296435
27705464
34947784
26900558
37560875
31143877
34919368
32275487
37302462
35460569
31129835
38861066
34328293
34112879
33422929
39176520
35333029
35423778
29693855
29068529
33670177
30832881